{
  "development": {
    "username": "postgres",
    "password": "root",
    "database": "blog",
    "host": "127.0.0.1",
    "dialect": "postgres",
    "port":5432
  },
  "test": {
    "username": "postgres",
    "password": "root",
    "database": "blog",
    "host": "127.0.0.1",
    "dialect": "postgres",
    "port":5432
  },
  "production": {
    "username": "postgres",
    "password": "root",
    "database": "blog",
    "host": "127.0.0.1",
    "dialect": "postgres",
    "port":5432
  }
}
